00:00:00.388598 VirtualBox GUI VM Selector Window 6.1.32 r149290 linux.amd64 (Feb 10 2022 14:02:19) release log
00:00:00.388601 Log opened 2022-03-06T16:50:51.191825000Z
00:00:00.388601 Build Type: release
00:00:00.388604 OS Product: Linux
00:00:00.388604 OS Release: 5.16.12-arch1-1
00:00:00.388606 OS Version: #1 SMP PREEMPT Wed, 02 Mar 2022 12:22:51 +0000
00:00:00.388625 DMI Product Name: To Be Filled By O.E.M.
00:00:00.388634 DMI Product Version: To Be Filled By O.E.M.
00:00:00.388639 Firmware type: UEFI
00:00:00.389128 Secure Boot: Disabled
00:00:00.389164 Host RAM: 15997MB (15.6GB) total, 14848MB (14.5GB) available
00:00:00.389167 Executable: /usr/lib/virtualbox/VirtualBox
00:00:00.389168 Process ID: 6117
00:00:00.389168 Package type: LINUX_64BITS_GENERIC (OSE)
00:00:00.389192 Qt version: 5.15.3
00:00:00.410991 GUI: UIMediumEnumerator: Medium-enumeration started...
00:00:00.411006 GUI: UIMediumEnumerator: Medium-enumeration finished!
00:00:00.847588 GUI: UIDesktopWidgetWatchdog::sltHandleHostScreenAvailableGeometryCalculated: Screen 0 work area is actually resized to: 4x4 x 635x1072
00:00:00.848889 GUI: UIDesktopWidgetWatchdog::sltHandleHostScreenAvailableGeometryCalculated: Screen 1 work area is actually resized to: 643x4 x 635x1072
