00:00:00.001705 main     VirtualBox XPCOM Server 6.1.32 r149290 linux.amd64 (Feb 10 2022 14:02:19) release log
00:00:00.001707 main     Log opened 2022-03-06T16:50:51.018673000Z
00:00:00.001707 main     Build Type: release
00:00:00.001711 main     OS Product: Linux
00:00:00.001712 main     OS Release: 5.16.12-arch1-1
00:00:00.001712 main     OS Version: #1 SMP PREEMPT Wed, 02 Mar 2022 12:22:51 +0000
00:00:00.001731 main     DMI Product Name: To Be Filled By O.E.M.
00:00:00.001737 main     DMI Product Version: To Be Filled By O.E.M.
00:00:00.001740 main     Firmware type: UEFI
00:00:00.002269 main     Secure Boot: Disabled
00:00:00.002289 main     Host RAM: 15997MB (15.6GB) total, 14851MB (14.5GB) available
00:00:00.002290 main     Executable: /usr/lib/virtualbox/VBoxSVC
00:00:00.002291 main     Process ID: 6155
00:00:00.002291 main     Package type: LINUX_64BITS_GENERIC (OSE)
00:00:00.003268 main     IPC socket path: /tmp/.vbox-gabriel-ipc/ipcd
00:00:00.111240 nspr-2   VirtualBox: object creation starts
00:00:00.111294 nspr-2   Home directory: '/home/gabriel/.config/VirtualBox'
00:00:00.130344 nspr-2   HostDnsMonitor: initializing
00:00:00.130522 nspr-2   NAT: resolv.conf: nameserver 192.168.42.129
00:00:00.130536 nspr-2   NAT: resolv.conf: nameserver 2804:18:830:ce10::e7
00:00:00.130538 nspr-2   NAT: resolv.conf: nameserver 192.168.0.1
00:00:00.130543 nspr-2   HostDnsMonitor: updating information
00:00:00.130557 nspr-2   HostDnsMonitor: old information
00:00:00.130559 nspr-2     no server entries
00:00:00.130560 nspr-2     no domain set
00:00:00.130562 nspr-2     no search string entries
00:00:00.130563 nspr-2   HostDnsMonitor: new information
00:00:00.130564 nspr-2     server 1: 192.168.42.129
00:00:00.130566 nspr-2     server 2: 2804:18:830:ce10::e7
00:00:00.130568 nspr-2     server 3: 192.168.0.1
00:00:00.130569 nspr-2     no domain set
00:00:00.130571 nspr-2     no search string entries
00:00:00.133284 nspr-2   Failed to open "/dev/vboxdrvu", errno=2, rc=VERR_VM_DRIVER_NOT_INSTALLED
00:00:00.135143 nspr-2   VD: VDInit finished with VINF_SUCCESS
00:00:00.135721 nspr-2   ERROR [COM]: aRC=NS_ERROR_FAILURE (0x80004005) aIID={027bc463-929c-40e8-bf16-fea557cd8e7e} aComponent={SystemPropertiesWrap} aText={Cannot determine default Guest Additions ISO location. Most likely they are not available}, preserve=false aResultDetail=0
00:00:00.136275 nspr-2   VirtualBox: object created
00:00:25.376438 nspr-3   Saving settings file "/home/gabriel/.config/VirtualBox/VirtualBox.xml" with version "1.12-linux"
00:00:25.387904 nspr-2   Saving settings file "/home/gabriel/.config/VirtualBox/VirtualBox.xml" with version "1.12-linux"
00:00:25.396947 nspr-3   Saving settings file "/home/gabriel/.config/VirtualBox/VirtualBox.xml" with version "1.12-linux"
00:00:25.409862 nspr-3   Saving settings file "/home/gabriel/.config/VirtualBox/VirtualBox.xml" with version "1.12-linux"
00:00:25.419234 nspr-3   Saving settings file "/home/gabriel/.config/VirtualBox/VirtualBox.xml" with version "1.12-linux"
00:00:25.428603 nspr-2   Saving settings file "/home/gabriel/.config/VirtualBox/VirtualBox.xml" with version "1.12-linux"
00:00:25.437787 nspr-2   Saving settings file "/home/gabriel/.config/VirtualBox/VirtualBox.xml" with version "1.12-linux"
00:00:30.951926 main     VirtualBox: object deletion starts
00:00:30.952177 main     HostDnsMonitor: shutting down ...
00:00:30.962245 main     HostDnsMonitor: shut down
00:00:31.152041 Watcher  ERROR [COM]: aRC=E_ACCESSDENIED (0x80070005) aIID={d0a0163f-e254-4e5b-a1f2-011cf991c38d} aComponent={VirtualBoxWrap} aText={The object is not ready}, preserve=false aResultDetail=0
00:00:35.962351 main     {00007f0a78015b00} HostPowerServiceLinux::~HostPowerServiceLinux: RTThreadWait() for 5000 ms failed with VERR_TIMEOUT
00:00:35.962779 main     VirtualBox: object deleted
